<?xml version="1.0" encoding="UTF-8" standalone="no"?>
<!-- Created with Inkscape (http://www.inkscape.org/) -->

<svg
   xmlns:dc="http://purl.org/dc/elements/1.1/"
   xmlns:cc="http://creativecommons.org/ns#"
   xmlns:rdf="http://www.w3.org/1999/02/22-rdf-syntax-ns#"
   xmlns:svg="http://www.w3.org/2000/svg"
   xmlns="http://www.w3.org/2000/svg"
   version="1.1"
   width="500"
   height="500"
   id="svg3036">
  <defs
     id="defs3038" />
  <metadata
     id="metadata3041">
    <rdf:RDF>
      <cc:Work
         rdf:about="">
        <dc:format>image/svg+xml</dc:format>
        <dc:type
           rdf:resource="http://purl.org/dc/dcmitype/StillImage" />
        <dc:title></dc:title>
      </cc:Work>
    </rdf:RDF>
  </metadata>
  <g
     transform="translate(0,-552.36218)"
     id="layer1">
    <g
       transform="matrix(0,1,-1,0,1050.6242,552.50747)"
       id="g3068">
      <path
         d="M 98.872485,341.76916 A 150.18832,241.52542 0 1 1 399.2467,340.39548"
         transform="matrix(1,0,0,1.2378283,0,528.84808)"
         id="path3064"
         style="fill:none;stroke:#000000;stroke-width:3.12519693;stroke-miterlimit:4;stroke-opacity:1;stroke-dasharray:none" />
      <path
         d="m 98.870056,950.72824 c 299.435024,-0.93886 299.435024,-0.93886 299.435024,-0.93886 l 0,0"
         id="path3066"
         style="fill:none;stroke:#000000;stroke-width:0.99853301px;stroke-linecap:butt;stroke-linejoin:miter;stroke-opacity:1" />
    </g>
  </g>
</svg>
